{
  "version": "1.0",
  "defaultProvider": "cdnjs",
  "libraries": [
    {
      "library": "jquery-validate@1.19.1",
      "destination": "wwwroot/plugins/jquery-validate/"
    },
    {
      "library": "jquery-validation-unobtrusive@3.2.11",
      "destination": "wwwroot/plugins/jquery-validation-unobtrusive/"
    }
  ]
}